{
    
    "data": {
        "trademarkList": [
            {
                "tmId": 6,
                "tmName": "VIVO"
            },
            {
                "tmId": 1,
                "tmName": "小米"
            },
            {
                "tmId": 3,
                "tmName": "华为"
            },
            {
                "tmId": 2,
                "tmName": "苹果"
            },
            {
                "tmId": 26,
                "tmName": "海信"
            },
            {
                "tmId": 24,
                "tmName": "联想"
            },
            {
                "tmId": 27,
                "tmName": "戴尔"
            },
            {
                "tmId": 25,
                "tmName": "华硕"
            },
            {
                "tmId": 393876,
                "tmName": "123asd"
            },
            {
                "tmId": 4,
                "tmName": "尚硅谷"
            }
        ],
        "attrsList": [
            {
                "attrId": 106,
                "attrValueList": [
                    "安卓手机",
                    "苹果手机"
                ],
                "attrName": "手机一级"
            },
            {
                "attrId": 23,
                "attrValueList": [
                    "4G",
                    "8G",
                    "6G",
                    "128G",
                    "12G",
                    "256G",
                    "3G"
                ],
                "attrName": "运行内存"
            },
            {
                "attrId": 107,
                "attrValueList": [
                    "小米",
                    "华为",
                    "苹果"
                ],
                "attrName": "二级手机"
            },
            {
                "attrId": 24,
                "attrValueList": [
                    "128G",
                    "256G",
                    "512G",
                    "32G"
                ],
                "attrName": "机身内存"
            },
            {
                "attrId": 111,
                "attrValueList": [
                    "骁龙730G",
                    "麒麟990",
                    "骁龙439",
                    "骁龙845",
                    "5G骁龙768G"
                ],
                "attrName": "CPU型号"
            },
            {
                "attrId": 112,
                "attrValueList": [
                    "6.55-6.64英寸",
                    "6.85-6.94英寸",
                    " 6.75-6.84英寸",
                    "6.65-6.74英寸",
                    "6.0-6.24英寸",
                    "6.95英寸及以上"
                ],
                "attrName": "屏幕尺寸"
            },
            {
                "attrId": 34928,
                "attrValueList": [
                    "哈哈哈"
                ],
                "attrName": "周嘉琪手机"
            },
            {
                "attrId": 70,
                "attrValueList": [
                    "国内"
                ],
                "attrName": "品牌"
            },
            {
                "attrId": 25,
                "attrValueList": [
                    "i5"
                ],
                "attrName": "处理器"
            },
            {
                "attrId": 26,
                "attrValueList": [
                    "14.0"
                ],
                "attrName": "屏幕尺寸"
            }
        ],
        "goodsList": [
            {
                "id": 21,
                "defaultImg": "http://47.93.148.192:8080/group1/M00/02/DA/rBHu8mGxO7mAIZosAACYibCV0ks310.jpg",
                "title": "vivo S10 5G手机 8GB+256GB 青柠 超轻薄机身 前置4400万超清双摄 自然柔光人像 6nm旗舰芯片 拍照手机 青色",
                "price": 2424,
                "createTime": null,
                "tmId": null,
                "tmName": null,
                "category1Id": null,
                "category1Name": null,
                "category2Id": null,
                "category2Name": null,
                "category3Id": null,
                "category3Name": null,
                "hotScore": 0,
                "attrs": null
            },
            {
                "id": 2,
                "defaultImg": "http://47.93.148.192:8080/group1/M00/00/01/rBHu8l-rfvmAcbl2AAFopp2WGBQ404.jpg",
                "title": "小米10 至尊纪念版 双模5G 骁龙865 120HZ高刷新率 120倍长焦镜头 120W快充 12GB+256GB 陶瓷黑 游戏手机",
                "price": 6999,
                "createTime": null,
                "tmId": null,
                "tmName": null,
                "category1Id": null,
                "category1Name": null,
                "category2Id": null,
                "category2Name": null,
                "category3Id": null,
                "category3Name": null,
                "hotScore": 0,
                "attrs": null
            },
            {
                "id": 16,
                "defaultImg": "http://47.93.148.192:8080/group1/M00/00/02/rBHu8l-sklaALrngAAHGDqdpFtU741.jpg",
                "title": "华为 HUAWEI P40 麒麟990 5G SoC芯片 5000万超感知徕卡三摄 30倍数字变焦 8GB+128GB亮黑色全网通5G手机",
                "price": 4488,
                "createTime": null,
                "tmId": null,
                "tmName": null,
                "category1Id": null,
                "category1Name": null,
                "category2Id": null,
                "category2Name": null,
                "category3Id": null,
                "category3Name": null,
                "hotScore": 0,
                "attrs": null
            },
            {
                "id": 6,
                "defaultImg": "http://47.93.148.192:8080/group1/M00/00/01/rBHu8l-rgJqAHPnoAAF9hoDNfsc505.jpg",
                "title": "Redmi 10X 4G Helio G85游戏芯 4800万超清四摄 5020mAh大电量 小孔全面屏 128GB大存储 8GB+128GB 冰雾白 游戏智能手机 小米 红米",
                "price": 1299,
                "createTime": null,
                "tmId": null,
                "tmName": null,
                "category1Id": null,
                "category1Name": null,
                "category2Id": null,
                "category2Name": null,
                "category3Id": null,
                "category3Name": null,
                "hotScore": 0,
                "attrs": null
            },
            {
                "id": 31,
                "defaultImg": "http://47.93.148.192:8080/group1/M00/02/DC/rBHu8mGyQOKATYA2AABTVO9hAHc987.jpg",
                "title": "华为智慧屏 SE 55英寸 超薄电视 广色域鸿鹄画质 超高清智能液晶电视机 HD55DESA 2+16GB",
                "price": 8888,
                "createTime": null,
                "tmId": null,
                "tmName": null,
                "category1Id": null,
                "category1Name": null,
                "category2Id": null,
                "category2Name": null,
                "category3Id": null,
                "category3Name": null,
                "hotScore": 0,
                "attrs": null
            },
            {
                "id": 30,
                "defaultImg": "http://47.93.148.192:8080/group1/M00/02/DC/rBHu8mGyQC6AW3xhAAASmSzwKtk802.jpg",
                "title": "海信 Vidda 55V1F-R 55英寸 4K超高清 超薄电视 全面屏电视 智慧屏 1.5G+8G 222",
                "price": 4545,
                "createTime": null,
                "tmId": null,
                "tmName": null,
                "category1Id": null,
                "category1Name": null,
                "category2Id": null,
                "category2Name": null,
                "category3Id": null,
                "category3Name": null,
                "hotScore": 0,
                "attrs": null
            },
            {
                "id": 1,
                "defaultImg": "http://47.93.148.192:8080/group1/M00/00/01/rBHu8l-rfvmAIpgZAAIvrX6L9fo612.jpg",
                "title": "小米10 至尊纪念版 双模5G 骁龙865 120HZ高刷新率 120倍长焦镜头 120W快充 8GB+128GB 陶瓷黑 游戏手机",
                "price": 5999,
                "createTime": null,
                "tmId": null,
                "tmName": null,
                "category1Id": null,
                "category1Name": null,
                "category2Id": null,
                "category2Name": null,
                "category3Id": null,
                "category3Name": null,
                "hotScore": 0,
                "attrs": null
            },
            {
                "id": 9,
                "defaultImg": "http://47.93.148.192:8080/group1/M00/00/02/rBHu8l-rgfWAJllcAAEY0AkXL8M782.jpg",
                "title": "Apple iPhone 12 (A2404) 64GB 红色 支持移动联通电信5G 双卡双待手机",
                "price": 8197,
                "createTime": null,
                "tmId": null,
                "tmName": null,
                "category1Id": null,
                "category1Name": null,
                "category2Id": null,
                "category2Name": null,
                "category3Id": null,
                "category3Name": null,
                "hotScore": 0,
                "attrs": null
            },
            {
                "id": 5137,
                "defaultImg": "http://139.198.127.41:9000/sph/20220801/logo2.jpeg",
                "title": "熊二的冒险",
                "price": 32,
                "createTime": null,
                "tmId": null,
                "tmName": null,
                "category1Id": null,
                "category1Name": null,
                "category2Id": null,
                "category2Name": null,
                "category3Id": null,
                "category3Name": null,
                "hotScore": 0,
                "attrs": null
            },
            {
                "id": 18,
                "defaultImg": "http://47.93.148.192:8080/group1/M00/02/DA/rBHu8mGxPb-AQOTXAAAWgQNuXx0990.jpg",
                "title": "vivo S10 Pro 5G手机 12GB+256GB 绮光焕彩 后置一亿像素 自然柔光人像 光致变色工艺 6nm旗舰芯片",
                "price": 2323,
                "createTime": null,
                "tmId": null,
                "tmName": null,
                "category1Id": null,
                "category1Name": null,
                "category2Id": null,
                "category2Name": null,
                "category3Id": null,
                "category3Name": null,
                "hotScore": 0,
                "attrs": null
            }
        ],
        "total": 142,
        "pageSize": 10,
        "pageNo": 1,
        "totalPages": 15
    },
    "ok": true
}